{
  "states": [
    "All", "Due", "Completed"
  ],
  "toastColors": {
    "error": {
      "color": "#fff",
      "backgroundColor": "#ff0039"
    },
    "success": {
      "color": "#fff",
      "backgroundColor": "#3fb618"
    },
    "warning": {
      "color": "#fff",
      "backgroundColor": "#ff7518"
    },
    "info": {
      "color": "#fff",
      "backgroundColor": "#373a3c"
    }
  },
  "types": [
    "Default",
    "Primary",
    "Secondary",
    "Success",
    "Info",
    "Warning",
    "Danger"
  ]
}
